<svg xmlns="http://www.w3.org/2000/svg" width="162.749" height="62.662" viewBox="0 0 162.749 62.662">
  <g id="logo" transform="translate(-125.923 -437.526)">
    <path id="Path_8740" data-name="Path 8740" d="M1367.8,490.99h0V474.37a4.91,4.91,0,0,1,4.909-4.909v16.62a4.909,4.909,0,0,1-4.909,4.909" transform="translate(-1084.032 -27.876)" fill="#006937"/>
    <path id="Path_8741" data-name="Path 8741" d="M125.923,540.42A26.475,26.475,0,1,0,152.4,513.945a26.476,26.476,0,0,0-26.475,26.475" transform="translate(0 -66.706)" fill="#006937"/>
    <path id="Path_8742" data-name="Path 8742" d="M198.618,555.2c.062,3.064-1.47,11.216-7.477,16.059-7.53,6.07-15.008,5.775-20.878,3.056-6.166-2.856-9.3-10.916-7.631-17.4a12.589,12.589,0,0,1,6.736-8.355,10.223,10.223,0,0,1,9.99.8c2.74,1.985,5.394,5.85,4.558,10.142-.694,3.566-3.267,7.193-6.458,8.357a14.246,14.246,0,0,0,7.736-4.394,14.654,14.654,0,0,0,3.66-7.591,14.39,14.39,0,0,0-1.076-9.426,15.06,15.06,0,0,0-9.27-8.1c-7.75-2.174-15.718,1.53-20.792,8.008a24.393,24.393,0,0,0-1.925,2.854,23.257,23.257,0,0,0,4.953,29.289c9.109,7.685,24.1,7.457,32.306-1.847,7.774-8.816,6.732-18.255,5.567-21.443" transform="translate(-23.344 -87.45)" fill="#fff"/>
    <path id="Path_8743" data-name="Path 8743" d="M216.864,439.639c.267,0,.537.006.811.018a25.683,25.683,0,0,0-1.116,10.08,18.012,18.012,0,0,1-.4,4.369,3.218,3.218,0,0,1-3.122,2.555c-.108.008-.216.014-.322.014a3.483,3.483,0,0,1-3.208-2.02c-1.33-2.8-.442-6.635,2.133-9.246.292-.294.564-.606.932-1-.042,0-.087,0-.131,0-2.373,0-4.666,4.009-5.074,8.572a6.718,6.718,0,0,1-.516-8.456c2.436-3.462,5.865-4.875,10.007-4.875m0-1.847h0c-5,0-8.875,1.9-11.517,5.659a8.592,8.592,0,0,0,.729,10.835l2.8,2.636a5.36,5.36,0,0,0,3.848,1.6c.156,0,.315-.007.471-.02a5.021,5.021,0,0,0,4.785-4.039,19.442,19.442,0,0,0,.429-4.823,24.152,24.152,0,0,1,1.015-9.374l.82-2.349-2.485-.106c-.3-.011-.6-.018-.889-.018" transform="translate(-67.953 -0.232)" fill="#006937"/>
    <path id="Path_8744" data-name="Path 8744" d="M225.664,469.345a3.5,3.5,0,0,1-3.53-2.006c-1.33-2.8-.441-6.635,2.133-9.247.292-.294.564-.605.932-1.005-2.418-.152-4.788,3.921-5.205,8.567a6.717,6.717,0,0,1-.514-8.456c2.591-3.685,6.31-5.048,10.817-4.857a25.693,25.693,0,0,0-1.116,10.079,18,18,0,0,1-.4,4.37,3.216,3.216,0,0,1-3.122,2.554" transform="translate(-80.576 -12.917)" fill="#fff"/>
    <path id="Path_8745" data-name="Path 8745" d="M817.708,755.2a11.1,11.1,0,1,0,11.1,11.1,11.1,11.1,0,0,0-11.1-11.1m0,17.87a6.722,6.722,0,1,1,6.722-6.721,6.722,6.722,0,0,1-6.722,6.721" transform="translate(-594.174 -277.3)" fill="#006937"/>
    <path id="Path_8746" data-name="Path 8746" d="M947.309,777.452h-.459V759.906a4.645,4.645,0,0,1,4.646-4.646h.458v17.546a4.645,4.645,0,0,1-4.645,4.646" transform="translate(-716.588 -277.35)" fill="#006937"/>
    <path id="Path_8747" data-name="Path 8747" d="M1010.478,777.452h-.459a4.646,4.646,0,0,1-4.646-4.646V755.26h.458a4.646,4.646,0,0,1,4.646,4.646Z" transform="translate(-767.673 -277.35)" fill="#006937"/>
    <path id="Path_8748" data-name="Path 8748" d="M1045.537,764.8v-4.433a5.1,5.1,0,0,1,5.1-5.1V759.7a5.1,5.1,0,0,0-5.1,5.1" transform="translate(-802.732 -277.353)" fill="#006937"/>
    <path id="Path_8749" data-name="Path 8749" d="M1145.561,730.285h.459a4.645,4.645,0,0,0,4.645-4.646V701.225h-.458a4.645,4.645,0,0,0-4.646,4.646Z" transform="translate(-890.044 -230.183)" fill="#006937"/>
    <path id="Path_8750" data-name="Path 8750" d="M1103.859,755.251v.4a4.033,4.033,0,0,0,4.033,4.033h11.672v-.4a4.034,4.034,0,0,0-4.033-4.033Z" transform="translate(-853.642 -277.343)" fill="#006937"/>
    <path id="Path_8751" data-name="Path 8751" d="M622.019,764.421H630.9a6.723,6.723,0,1,0-2.1,7.161,5.262,5.262,0,0,1,3.372-1.272h2.691a11.144,11.144,0,1,1,.721-3.937,10.919,10.919,0,0,1-.178,1.973H618.094a3.925,3.925,0,0,1,3.925-3.926" transform="translate(-425.508 -277.367)" fill="#006937"/>
    <path id="Path_8752" data-name="Path 8752" d="M1245.776,730.285h0c2.819,0,5.1-2.285,5.1-4.4V701.225a5.1,5.1,0,0,0-5.1,5.1Z" transform="translate(-977.521 -230.183)" fill="#006937"/>
    <path id="Path_8753" data-name="Path 8753" d="M1293.594,755.813h0a7.656,7.656,0,0,0-7.656,7.656v3.372a5.1,5.1,0,0,1,10.208,0v11.094a5.1,5.1,0,0,0,5.1-5.1v-9.361a7.657,7.657,0,0,0-7.657-7.656" transform="translate(-1012.579 -277.833)" fill="#006937"/>
    <path id="Path_8754" data-name="Path 8754" d="M847.356,657.219h3.337v-3.962a3.337,3.337,0,0,0-3.337,3.337Z" transform="translate(-629.74 -188.312)" fill="#006937"/>
    <path id="Path_8755" data-name="Path 8755" d="M643.131,457.336c0,3.647-2.139,5.786-5.926,5.786H624.513q-11.625,0-11.607-9.817v-1.263a4.84,4.84,0,0,1,4.84-4.838v6.1c0,2.069.665,3.506,1.963,4.242a10.112,10.112,0,0,0,4.91.877h9.046a7.7,7.7,0,0,0,2.875-.351c1.157-.491,1.753-1.578,1.753-3.226v-2.77a4.839,4.839,0,0,1,4.839-4.838Zm-17.9-10.132h-.351a2.016,2.016,0,0,1,0-4.032h.351a2.016,2.016,0,0,1,0,4.032m3.295-5.611h-.35a2.016,2.016,0,0,1-2.016-2.014v-.036a2.016,2.016,0,0,1,2.016-2.016h.35a2.016,2.016,0,0,1,2.017,2.016v.036a2.016,2.016,0,0,1-2.017,2.014m3.332,5.611h-.351a2.016,2.016,0,0,1,0-4.032h.351a2.016,2.016,0,1,1,0,4.032" transform="translate(-425.088)" fill="#006937"/>
    <path id="Path_8756" data-name="Path 8756" d="M888.581,529.828h-5.434c-.807,3.857-3.963,5.785-9.538,5.785v-3.963q4.838,0,4.839-4.627V513.945a4.944,4.944,0,0,1,4.943,4.944v6.241h5.189Z" transform="translate(-652.656 -66.706)" fill="#006937"/>
    <path id="Path_8757" data-name="Path 8757" d="M1230.351,535.643h-.316a2.016,2.016,0,0,1-2.016-2.017v-.035a2.016,2.016,0,0,1,2.016-2.016h.316a2.016,2.016,0,0,1,2.016,2.016v.035a2.016,2.016,0,0,1-2.016,2.017m10.976-12.587a7.017,7.017,0,0,1-1.542,4.628,5.823,5.823,0,0,1-4.8,2.14h-4.173v-4.7h3.121c1.648,0,2.49-1.157,2.49-3.436v-7.749a4.908,4.908,0,0,1,4.908,4.909Zm-4.349,12.587h-.35a2.015,2.015,0,0,1-2.016-2.017v-.035a2.015,2.015,0,0,1,2.016-2.016h.35a2.016,2.016,0,0,1,2.017,2.016v.035a2.016,2.016,0,0,1-2.017,2.017" transform="translate(-962.021 -66.701)" fill="#006937"/>
    <rect id="Rectangle_1185" data-name="Rectangle 1185" width="32.862" height="4.699" transform="translate(235.925 458.423)" fill="#006937"/>
  </g>
</svg>
